390647 206486 443
717850 803949 468
364856 143855 443
912521 876378 476
526685 227670 470
787899 660001 504
67876 739713 509
683887 963860 525
422506 114852 449
165320 74135 383
315459 45188 443
12131 505263 449
930912 444897 525
953775 162850 525
511060 988560 525
757418 309399 509
457985 518790 470
995247 385010 525
930509 608222 525
188319 302579 443
3094 956444 525
52689 310687 443
685266 104184 509
258119 897209 525
487768 155107 449
450506 492845 444
765556 809813 468
286221 926135 525
767984 37130 509
879885 680155 525
182939 134581 383
376667 5994 443
974400 762882 525
326017 859208 525
481836 778599 509
155816 442867 449
75054 334604 443
324236 864424 525
139541 769723 509
661200 43511 509
805073 266965 509
2106 543929 470
624257 124013 470
463604 445447 444
357920 750115 509
614490 719679 509
130677 180327 383
354382 829193 509
482698 981014 525
528635 430118 470
564906 248406 470
192200 416820 449
327184 743183 509
283556 860191 525
986239 52409 525
889552 379135 525
698336 249365 509
307736 838191 525
985843 288597 525
994382 422449 525
61602 151374 375
389332 534711 470
959487 471008 525
586348 965386 525
487535 311901 449
682249 32895 509
599138 81841 470
232845 338669 407
638135 393985 509
619659 758335 509
55251 63122 335
288634 299513 371
616176 320247 470
760537 496656 509
825675 760099 468
32449 84649 351
277486 498292 449
490754 795461 509
906344 507756 525
738233 255888 509
666338 128693 509
801367 129496 509
988903 301866 525
28660 842140 525
484098 161965 449
616790 457990 470
740425 245986 509
108607 531780 470
751299 720924 424
395479 53029 443
450374 715792 509
726219 919277 525
73287 54856 335
975793 727915 525
579979 432170 470
959237 59989 525
169608 341882 443
889697 844376 445
999167 884467 507
174229 837033 525
359712 15997 443
417160 896111 525
137065 531598 470
891876 93596 525
456908 492729 444
3497 351043 443
608392 296181 470
884766 510335 525
421414 650062 509
922829 724278 525
759478 738574 424
65562 486850 449
327530 789507 509
372803 374658 348
842405 999549 507
177051 978638 525
192622 78213 383
812864 451313 509
74620 508036 449
250214 72479 443
734133 986923 525
124242 244969 443
864237 417892 525
592366 372187 470
415723 242152 449
169402 140384 383
60794 873348 525
192340 831209 509
317680 483999 449
848638 423828 525
891620 419526 525
765393 410968 509
616776 70982 470
1444 449516 449
493960 124454 449
910470 193853 525
710708 723326 411
750339 918885 525
203025 228966 386
102489 829771 509
272292 946083 525
134781 276643 443
6117 390908 443
492312 445156 444
768560 423518 509
132847 477472 449
822987 840042 525
737040 393356 509
229918 826141 509
418320 627315 509
522585 10072 470
333308 475287 449
304521 721818 509
450847 253135 449
836348 464174 509
176218 509277 449
883026 532337 525
746821 205059 509
578202 180467 470
316589 378993 441
828866 726866 468
428646 444822 400
831405 513799 509
139149 938363 525
599217 693687 509
400038 224397 443
12422 400281 443
232464 879530 525
91017 46771 351
558375 812335 509
57094 199624 383
646531 557279 509
181308 80067 383
418733 140377 449
997085 804088 525
846218 333821 525
580694 482234 470
459876 558395 470
165993 737294 509
677716 767973 504
21415 26603 308
423733 930150 525
16910 762392 509
552382 421147 470
739319 943358 525
664117 638496 429
976482 511585 525
34 401590 443
883620 931204 476
237410 258069 368
169888 548608 470
172998 643067 509
198696 138823 383
477198 948749 525
982302 668567 525
929801 953129 507
669320 713768 504
806750 730030 468
273249 157810 443
377429 116140 443
70740 766464 509
793273 46480 509
310264 986471 525
1034 586194 470
615014 846959 525
697814 284421 509
738249 156342 509
760029 555112 509
135001 282094 443
24755 150013 375
150947 676751 509
779442 430634 509
497417 970737 525
824771 68864 509
80936 891071 525
515466 10007 470
186359 484744 449
755180 17365 509
474543 126543 449
524083 884085 525
248718 573300 470
151589 445859 449
968086 890054 507
211699 857126 525
42860 418302 449
614724 203843 470
531866 82532 470
196667 417423 449
482008 238427 449
866382 627334 525
298283 954613 525
160620 543945 470
713718 89562 509
878378 198553 525
934184 536347 525
541005 405729 470
595216 153988 470
681324 622301 509
946566 375754 525
49816 426368 449
158021 492292 449
419972 670223 509
782761 222028 509
756136 854046 525
251601 40206 443
794725 265186 509
739442 464169 509
1712 849814 525
816568 948961 525
38231 241061 443
118706 782683 509
578089 618714 447
122302 387645 443
564130 107772 470
995266 731203 525
764811 236659 509
408452 129255 443
798009 570587 509
139477 585764 470
625998 11561 470
277955 953218 525
893691 413741 525
850081 621859 525
381679 101347 443
720487 149534 509
276225 596019 470
700595 229457 509
920313 361533 525
895260 659698 525
203022 655978 509
453233 526123 470
768875 645006 504
52058 639564 509
784513 774458 437
644285 378404 509
86940 26677 351
219421 479293 449
155749 92032 375
594839 991638 525
501157 675645 509
538891 565552 452
740350 129061 509
850774 478333 525
846522 347551 525
374224 321126 441
798205 405998 509
305914 65289 443
130853 719756 509
574463 307075 470
698333 611618 509
512253 849595 525
288887 42021 443
519793 422626 470
608299 916799 525
931162 263690 525
542382 825322 509
829079 487924 509
541618 281543 470
129482 659606 509
432651 541479 470